GDA: R programming - 4 Data in R
…
 [1] "challenge.csv"               "chickens.csv"               
 [3] "epa78.txt"                   "example.log"                
 [5] "fwf-sample.txt"              "massey-rating.txt"          
 [7] "mini-gapminder-africa.csv"   "mini-gapminder-americas.csv"
 [9] "mini-gapminder-asia.csv"     "mini-gapminder-europe.csv"  
[11] "mini-gapminder-oceania.csv"  "mtcars.csv"                 
[13] "mtcars.csv.bz2"              "mtcars.csv.zip"             
[15] "whitespace-sample.txt"      

Let’s try to read in a table:

read_csv(readr_example("mtcars.csv"))

# A tibble: 32 x 11
     mpg   cyl  disp    hp  drat    wt  qsec    vs    am  gear  carb
   <dbl> <dbl> <dbl> <dbl> <dbl> <dbl> <dbl> <dbl> <dbl> <dbl> <dbl>
 1  21       6  160    110  3.9   2.62  16.5     0     1     4     4
 2  21       6  160    110  3.9   2.88  17.0     0     1     4     4
 3  22.8     4  108     93  3.85  2.32  18.6     1     1     4     1
 4  21.4     6  258    110  3.08  3.22  19.4     1     0     3     1
 5  18.7     8  360    175  3.15  3.44  17.0     0     0     3     2
 6  18.1     6  225    105  2.76  3.46  20.2     1     0     3     1
 7  14.3     8  360    245  3.21  3.57  15.8     0     0     3     4
 8  24.4     4  147.    62  3.69  3.19  20       1     0     4     2
 9  22.8     4  141.    95  3.92  3.15  22.9     1     0     4     2
10  19.2     6  168.   123  3.92  3.44  18.3     1     0     4     4
# ... with 22 more rows
…
# A tibble: 6 x 2
    adr adults
  <dbl>  <dbl>
1     0      2
2     0      2
3    75      1
4    75      1
5    98      2
6    98      2

To create new variables in your data frame, you can use the mutate() function. This will make changes to the data frame, but not to the original data set you imported. That source data will remain unchanged.

mutate(new_df, total = adr/adults)

# A tibble: 119,390 x 3
     adr adults total
   <dbl>  <dbl> <dbl>
 1    0       2   0  
 2    0       2   0  
 3   75       1  75  
 4   75       1  75  
 5   98       2  49  
 6   98       2  49  
 7  107       2  53.5
 8  103       2  51.5
 9   82       2  41  
10  106.      2  52.8
# ... with 119,380 more rows
…
We can use select to specify certain columns or to exclude columns we don’t need right now. Let’s say we only need to check the species column.

penguins |> 
    select(species)

# A tibble: 344 x 1
   species
   <fct>  
 1 Adelie 
 2 Adelie 
 3 Adelie 
 4 Adelie 
 5 Adelie 
 6 Adelie 
 7 Adelie 
 8 Adelie 
 9 Adelie 
10 Adelie 
# ... with 334 more rows

We can also get everything except the species columns:

penguins |> 
    select(-species)

# A tibble: 344 x 7
   island    bill_length_mm bill_depth_mm flipper_length_mm body_m~1 sex    year
   <fct>              <dbl>         <dbl>             <int>    <int> <fct> <int>
 1 Torgersen           39.1          18.7               181     3750 male   2007
 2 Torgersen           39.5          17.4               186     3800 fema~  2007
 3 Torgersen           40.3          18                 195     3250 fema~  2007
 4 Torgersen           NA            NA                  NA       NA <NA>   2007
 5 Torgersen           36.7          19.3               193     3450 fema~  2007
 6 Torgersen           39.3          20.6               190     3650 male   2007
 7 Torgersen           38.9          17.8               181     3625 fema~  2007
 8 Torgersen           39.2          19.6               195     4675 male   2007
 9 Torgersen           34.1          18.1               193     3475 <NA>   2007
10 Torgersen           42            20.2               190     4250 <NA>   2007
# ... with 334 more rows, and abbreviated variable name 1: body_mass_g

4.3.3 Change column names

The rename function makes it easy to change column names. Starting with the penguin data, we’ll type rename and change the name of our island column to island underscore new.

penguins |> 
    rename(islands_new = island)

# A tibble: 344 x 8
   species islands_new bill_length_mm bill_depth_mm flippe~1 body_~2 sex    year
   <fct>   <fct>                <dbl>         <dbl>    <int>   <int> <fct> <int>
 1 Adelie  Torgersen             39.1          18.7      181    3750 male   2007
 2 Adelie  Torgersen             39.5          17.4      186    3800 fema~  2007
 3 Adelie  Torgersen             40.3          18        195    3250 fema~  2007
 4 Adelie  Torgersen             NA            NA         NA      NA <NA>   2007
 5 Adelie  Torgersen             36.7          19.3      193    3450 fema~  2007
 6 Adelie  Torgersen             39.3          20.6      190    3650 male   2007
 7 Adelie  Torgersen             38.9          17.8      181    3625 fema~  2007
 8 Adelie  Torgersen             39.2          19.6      195    4675 male   2007
 9 Adelie  Torgersen             34.1          18.1      193    3475 <NA>   2007
10 Adelie  Torgersen             42            20.2      190    4250 <NA>   2007
# ... with 334 more rows, and abbreviated variable names 1: flipper_length_mm,
#   2: body_mass_g

Let’s say we want to change our columns so that they’re spelled and formatted correctly. Similar to the rename function, the rename_with() function can change column names to be more consistent. For example, maybe we want all of our column names to be in uppercase. We can use the rename_with() function to do that.

rename_with(penguins, toupper)

# A tibble: 344 x 8
   SPECIES ISLAND    BILL_LENGTH_MM BILL_DEPTH_MM FLIPPER_~1 BODY_~2 SEX    YEAR
   <fct>   <fct>              <dbl>         <dbl>      <int>   <int> <fct> <int>
 1 Adelie  Torgersen           39.1          18.7        181    3750 male   2007
 2 Adelie  Torgersen           39.5          17.4        186    3800 fema~  2007
 3 Adelie  Torgersen           40.3          18          195    3250 fema~  2007
 4 Adelie  Torgersen           NA            NA           NA      NA <NA>   2007
 5 Adelie  Torgersen           36.7          19.3        193    3450 fema~  2007
 6 Adelie  Torgersen           39.3          20.6        190    3650 male   2007
 7 Adelie  Torgersen           38.9          17.8        181    3625 fema~  2007
 8 Adelie  Torgersen           39.2          19.6        195    4675 male   2007
 9 Adelie  Torgersen           34.1          18.1        193    3475 <NA>   2007
10 Adelie  Torgersen           42            20.2        190    4250 <NA>   2007
# ... with 334 more rows, and abbreviated variable names 1: FLIPPER_LENGTH_MM,
#   2: BODY_MASS_G

The clean names function in the Janitor package will automatically make sure that the column names are unique and consistent. This ensures that there’s only characters, numbers, and underscores in the names.

clean_names(penguins)

# A tibble: 344 x 8
   species island    bill_length_mm bill_depth_mm flipper_~1 body_~2 sex    year
   <fct>   <fct>              <dbl>         <dbl>      <int>   <int> <fct> <int>
 1 Adelie  Torgersen           39.1          18.7        181    3750 male   2007
 2 Adelie  Torgersen           39.5          17.4        186    3800 fema~  2007
 3 Adelie  Torgersen           40.3          18          195    3250 fema~  2007
 4 Adelie  Torgersen           NA            NA           NA      NA <NA>   2007
 5 Adelie  Torgersen           36.7          19.3        193    3450 fema~  2007
 6 Adelie  Torgersen           39.3          20.6        190    3650 male   2007
 7 Adelie  Torgersen           38.9          17.8        181    3625 fema~  2007
 8 Adelie  Torgersen           39.2          19.6        195    4675 male   2007
 9 Adelie  Torgersen           34.1          18.1        193    3475 <NA>   2007
10 Adelie  Torgersen           42            20.2        190    4250 <NA>   2007
# ... with 334 more rows, and abbreviated variable names 1: flipper_length_mm,
#   2: body_mass_g

4.3.4 Organizing data

Let’s start by sorting our data.

#sort data by bill length
penguins |> 
    arrange(bill_length_mm)

# A tibble: 344 x 8
   species island    bill_length_mm bill_depth_mm flipper_~1 body_~2 sex    year
   <fct>   <fct>              <dbl>         <dbl>      <int>   <int> <fct> <int>
 1 Adelie  Dream               32.1          15.5        188    3050 fema~  2009
 2 Adelie  Dream               33.1          16.1        178    2900 fema~  2008
 3 Adelie  Torgersen           33.5          19          190    3600 fema~  2008
 4 Adelie  Dream               34            17.1        185    3400 fema~  2008
 5 Adelie  Torgersen           34.1          18.1        193    3475 <NA>   2007
 6 Adelie  Torgersen           34.4          18.4        184    3325 fema~  2007
 7 Adelie  Biscoe              34.5          18.1        187    2900 fema~  2008
 8 Adelie  Torgersen           34.6          21.1        198    4400 male   2007
 9 Adelie  Torgersen           34.6          17.2        189    3200 fema~  2008
10 Adelie  Biscoe              35            17.9        190    3450 fema~  2008
# ... with 334 more rows, and abbreviated variable names 1: flipper_length_mm,
#   2: body_mass_g

#sort data by bill length in descending order
penguins |> 
    arrange(-bill_length_mm)

# A tibble: 344 x 8
   species   island bill_length_mm bill_depth_mm flipper_l~1 body_~2 sex    year
   <fct>     <fct>           <dbl>         <dbl>       <int>   <int> <fct> <int>
 1 Gentoo    Biscoe           59.6          17           230    6050 male   2007
 2 Chinstrap Dream            58            17.8         181    3700 fema~  2007
 3 Gentoo    Biscoe           55.9          17           228    5600 male   2009
 4 Chinstrap Dream            55.8          19.8         207    4000 male   2009
 5 Gentoo    Biscoe           55.1          16           230    5850 male   2009
 6 Gentoo    Biscoe           54.3          15.7         231    5650 male   2008
 7 Chinstrap Dream            54.2          20.8         201    4300 male   2008
 8 Chinstrap Dream            53.5          19.9         205    4500 male   2008
 9 Gentoo    Biscoe           53.4          15.8         219    5500 male   2009
10 Chinstrap Dream            52.8          20           205    4550 male   2008
# ... with 334 more rows, and abbreviated variable names 1: flipper_length_mm,
#   2: body_mass_g
…
Finally we can filter results using the filter function. Let’s say we only want data on Adelie penguins.

penguins |> 
    filter(species == "Adelie")

# A tibble: 152 x 8
   species island    bill_length_mm bill_depth_mm flipper_~1 body_~2 sex    year
   <fct>   <fct>              <dbl>         <dbl>      <int>   <int> <fct> <int>
 1 Adelie  Torgersen           39.1          18.7        181    3750 male   2007
 2 Adelie  Torgersen           39.5          17.4        186    3800 fema~  2007
 3 Adelie  Torgersen           40.3          18          195    3250 fema~  2007
 4 Adelie  Torgersen           NA            NA           NA      NA <NA>   2007
 5 Adelie  Torgersen           36.7          19.3        193    3450 fema~  2007
 6 Adelie  Torgersen           39.3          20.6        190    3650 male   2007
 7 Adelie  Torgersen           38.9          17.8        181    3625 fema~  2007
 8 Adelie  Torgersen           39.2          19.6        195    4675 male   2007
 9 Adelie  Torgersen           34.1          18.1        193    3475 <NA>   2007
10 Adelie  Torgersen           42            20.2        190    4250 <NA>   2007
# ... with 142 more rows, and abbreviated variable names 1: flipper_length_mm,
#   2: body_mass_g
…
We can also create new variables in our data frame using the mutate function. We worked with mutate a little bit before to clean and organize our data. But mutate can also be used to add columns with calculations.

Let’s go back to our penguin dataset. Right now, the body mass column is measured in grams. Maybe we want to add a column with kilograms.

penguins |> 
    mutate(body_mass_kg = body_mass_g/1000, flipper_length_m = flipper_length_mm/1000)

# A tibble: 344 x 10
   species island    bill_~1 bill_~2 flipp~3 body_~4 sex    year body_~5 flipp~6
   <fct>   <fct>       <dbl>   <dbl>   <int>   <int> <fct> <int>   <dbl>   <dbl>
 1 Adelie  Torgersen    39.1    18.7     181    3750 male   2007    3.75   0.181
 2 Adelie  Torgersen    39.5    17.4     186    3800 fema~  2007    3.8    0.186
 3 Adelie  Torgersen    40.3    18       195    3250 fema~  2007    3.25   0.195
 4 Adelie  Torgersen    NA      NA        NA      NA <NA>   2007   NA     NA    
 5 Adelie  Torgersen    36.7    19.3     193    3450 fema~  2007    3.45   0.193
 6 Adelie  Torgersen    39.3    20.6     190    3650 male   2007    3.65   0.19 
 7 Adelie  Torgersen    38.9    17.8     181    3625 fema~  2007    3.62   0.181
 8 Adelie  Torgersen    39.2    19.6     195    4675 male   2007    4.68   0.195
 9 Adelie  Torgersen    34.1    18.1     193    3475 <NA>   2007    3.48   0.193
10 Adelie  Torgersen    42      20.2     190    4250 <NA>   2007    4.25   0.19 
# ... with 334 more rows, and abbreviated variable names 1: bill_length_mm,
#   2: bill_depth_mm, 3: flipper_length_mm, 4: body_mass_g, 5: body_mass_kg,
#   6: flipper_length_m
…
